SHA3_BURST_MASTER/bus_fifo_tb.vcd
$date
	Sun Mar 10 22:02:47 2024
$end
$version
	Icarus Verilog
$end
$timescale
	1ps
$end
$scope module bus_fifo_tb $end
$scope module bus_fifo $end
$var wire 1 ! clk $end
$var wire 1 " read_en $end
$var wire 1 # rst $end
$var wire 128 $ write_data [127:0] $end
$var wire 1 % write_en $end
$var wire 1 & fifo_half_full $end
$var wire 1 ' fifo_full $end
$var wire 1 ( fifo_empty $end
$var parameter 32 ) depth $end
$var reg 5 * count [4:0] $end
$var reg 64 + read_data [63:0] $end
$var reg 4 , read_ptr [3:0] $end
$var reg 4 - write_ptr [3:0] $end
$upscope $end
$upscope $end
$enddefinitions $end
$comment Show the parameter values. $end
$dumpall
b10000 )
$end
#0
$dumpvars
b0 -
b0 ,
b1111111111111111111111111111111111111111111111111111111111111111 +
b0 *
1(
0'
0&
0%
b0 $
1#
0"
1!
$end
#500
0!
#1000
1!
#1500
0!
#2000
1!
#2500
0!
#3000
1!
#3500
0!
#4000
1!
#4500
0!
#5000
1!
0#
#5500
0!
#6000
0(
b10 *
b10 -
1!
b10000000000000000000000000000000000000000000000000000000000000000 $
1%
#6500
0!
#7000
b100 -
b100 *
1!
b110000000000000000000000000000000000000000000000000000000000000010 $
#7500
0!
#8000
b110 *
b110 -
1!
b1010000000000000000000000000000000000000000000000000000000000000100 $
#8500
0!
#9000
b1000 -
1&
b1000 *
1!
b1110000000000000000000000000000000000000000000000000000000000000110 $
#9500
0!
#10000
b1010 *
b1010 -
1!
b10010000000000000000000000000000000000000000000000000000000000001000 $
#10500
0!
#11000
b1100 -
b1100 *
1!
b100010000000000000000000000000000000000000000000000000000000000010000 $
#11500
0!
#12000
b1110 *
b1110 -
1!
b100110000000000000000000000000000000000000000000000000000000000010010 $
#12500
0!
#13000
b0 -
1'
b10000 *
1!
b101010000000000000000000000000000000000000000000000000000000000010100 $
#13500
0!
#14000
0'
b1111 *
b0 +
b1 ,
1!
1"
0%
#14500
0!
#15000
b1 +
b10 ,
b1110 *
1!
#15500
0!
#16000
b1101 *
b10 +
b11 ,
1!
#16500
0!
#17000
b11 +
b100 ,
b1100 *
1!
#17500
0!
#18000
b1011 *
b100 +
b101 ,
1!
#18500
0!
#19000
b101 +
b110 ,
b1010 *
1!
#19500
0!
#20000
b1001 *
b110 +
b111 ,
1!
#20500
0!
#21000
b111 +
b1000 ,
b1000 *
1!
#21500
0!
#22000
0&
b111 *
b1000 +
b1001 ,
1!
#22500
0!
#23000
b1001 +
b1010 ,
b110 *
1!
#23500
0!
#24000
b101 *
b10000 +
b1011 ,
1!
#24500
0!
#25000
b10001 +
b1100 ,
b100 *
1!
#25500
0!
#26000
b11 *
b10010 +
b1101 ,
1!
#26500
0!
#27000
b10011 +
b1110 ,
b10 *
1!
#27500
0!
#28000
b1 *
b10100 +
b1111 ,
1!
#28500
0!
#29000
b10101 +
b0 ,
1(
b0 *
1!
#29500
0!
#30000
1!
0"
#30500
0!
#31000
1!
#31500
0!
#32000
1!
#32500
0!
#33000
1!
#33500
0!
#34000
1!
#34500
0!
#35000
b10 -
0(
b10 *
1!
b10000000000000000000000000000000000000000000000000000000000000000 $
1%
#35500
0!
#36000
b11 *
b0 +
b1 ,
b100 -
1!
b110000000000000000000000000000000000000000000000000000000000000010 $
1"
#36500
0!
#37000
b1 +
b10 ,
b10 *
1!
0%
#37500
0!
#38000
b1 *
b10 +
b11 ,
1!
#38500
0!
#39000
b11 +
b100 ,
1(
b0 *
1!
#39500
0!
#40000
1!
0"
