SHA3_BURST_MASTER/dfsm_tb.vcd
$date
	Mon Mar 18 01:23:15 2024
$end
$version
	Icarus Verilog
$end
$timescale
	1ps
$end
$scope module dfsm_tb $end
$scope module my_dfsm $end
$var wire 1 ! buffer_full $end
$var wire 1 " bus_data_valid $end
$var wire 1 # clk $end
$var wire 1 $ dfsm_read_ready $end
$var wire 128 % ocm_data_out [127:0] $end
$var wire 1 & read_done $end
$var wire 1 ' reset $end
$var wire 1 ( start $end
$var wire 64 ) fifo_read_data [63:0] $end
$var wire 1 * fifo_half_full $end
$var wire 1 + fifo_full $end
$var wire 1 , fifo_empty $end
$var wire 512 - debug_memory [511:0] $end
$var reg 3 . byte_num [2:0] $end
$var reg 1 / fifo_read_en $end
$var reg 1 0 in_ready $end
$var reg 1 1 init_master_txn $end
$var reg 1 2 is_last $end
$var reg 512 3 keccak_hash_reg [511:0] $end
$var reg 64 4 keccak_input [63:0] $end
$var reg 32 5 read_addr_index [31:0] $end
$var reg 2 6 read_state [1:0] $end
$var reg 5 7 state [4:0] $end
$scope module bus_fifo $end
$var wire 1 # clk $end
$var wire 1 / read_en $end
$var wire 1 ' rst $end
$var wire 128 8 write_data [127:0] $end
$var wire 1 " write_en $end
$var wire 1 * fifo_half_full $end
$var wire 1 + fifo_full $end
$var wire 1 , fifo_empty $end
$var wire 512 9 debug_memory [511:0] $end
$var parameter 32 : depth $end
$var reg 7 ; count [6:0] $end
$var reg 64 < read_data [63:0] $end
$var reg 6 = read_ptr [5:0] $end
$var reg 6 > write_ptr [5:0] $end
$upscope $end
$upscope $end
$upscope $end
$enddefinitions $end
$comment Show the parameter values. $end
$dumpall
b1000000 :
$end
#0
$dumpvars
b0 >
b0 =
b1010101010101010101110111011101111001100110011001101110111011101 <
b0 ;
bx 9
b0 8
b0 7
b10 6
b0 5
bx 4
b11000011110000111100001111000011110000111100001111000011110000111100001111000011110000111100001111000011110000111100001111000011110000111100001111000011110000111100001111000011110000111100001111000011110000111100001111000011110000111100001111000011110000111100001111000011110000111100001111000011110000111100001111000011110000111100001111000011110000111100001111000011110000111100001111000011110000111100001111000011110000111100001111000011110000111100001111000011110000111100001111000011110000111100001111000011 3
x2
01
x0
0/
bx .
bx -
1,
0+
0*
b1010101010101010101110111011101111001100110011001101110111011101 )
0(
1'
0&
b0 %
1$
1#
0"
0!
$end
#500
0#
#1000
1#
#1500
0#
#2000
1#
#2500
0#
#3000
1#
#3500
0#
#4000
1#
#4500
0#
#5000
1#
0'
#5500
0#
#6000
1#
#6500
0#
#7000
1#
#7500
0#
#8000
1#
#8500
0#
#9000
1#
#9500
0#
#10000
b0 6
1#
1(
#10500
0#
#11000
b1 6
11
1#
#11500
0#
#12000
0,
b10 ;
bx00000000000000000000000000000000000000000000000000000000000000010000000000000000000000000000000000000000000000000000000000000000 -
bx00000000000000000000000000000000000000000000000000000000000000010000000000000000000000000000000000000000000000000000000000000000 9
b10 >
b1 5
b10 6
01
1#
1&
1"
b10000000000000000000000000000000000000000000000000000000000000000 %
b10000000000000000000000000000000000000000000000000000000000000000 8
#12500
0#
#13000
b1 7
1/
b0 6
1#
0"
#13500
0#
#14000
b1 ;
b0 )
b0 <
b1 =
b1 6
11
b10 7
0/
1#
#14500
0#
#15000
b11 7
b11000011110000111100001111000011110000111100001111000011110000111100001111000011110000111100001111000011110000111100001111000011110000111100001111000011110000111100001111000011110000111100001111000011110000111100001111000011110000111100001111000011110000111100001111000011110000111100001111000011110000111100001111000011110000111100001111000011110000111100001111000011110000111100001111000011110000111100001111000011110000111100001111000011110000110000000000000000000000000000000000000000000000000000000000000000 3
b10 5
b10 6
01
bx0000000000000000000000000000000000000000000000000000000000000011000000000000000000000000000000000000000000000000000000000000001000000000000000000000000000000000000000000000000000000000000000010000000000000000000000000000000000000000000000000000000000000000 -
bx0000000000000000000000000000000000000000000000000000000000000011000000000000000000000000000000000000000000000000000000000000001000000000000000000000000000000000000000000000000000000000000000010000000000000000000000000000000000000000000000000000000000000000 9
b100 >
b11 ;
1#
1"
b110000000000000000000000000000000000000000000000000000000000000010 %
b110000000000000000000000000000000000000000000000000000000000000010 8
#15500
0#
#16000
b0 6
b100 7
1/
1#
0"
#16500
0#
#17000
b101 7
0/
b1 6
11
b1 )
b1 <
b10 =
b10 ;
1#
#17500
0#
#18000
b11 5
b10 6
01
b110 7
b11000011110000111100001111000011110000111100001111000011110000111100001111000011110000111100001111000011110000111100001111000011110000111100001111000011110000111100001111000011110000111100001111000011110000111100001111000011110000111100001111000011110000111100001111000011110000111100001111000011110000111100001111000011110000111100001111000011110000111100001111000011110000111100001100000000000000000000000000000000000000000000000000000000000000010000000000000000000000000000000000000000000000000000000000000000 3
1#
#18500
0#
#19000
b111 7
1/
b0 6
1#
#19500
0#
#20000
b1 ;
b10 )
b10 <
b11 =
b1 6
11
b1000 7
0/
1#
#20500
0#
#21000
b1001 7
b11000011110000111100001111000011110000111100001111000011110000111100001111000011110000111100001111000011110000111100001111000011110000111100001111000011110000111100001111000011110000111100001111000011110000111100001111000011110000111100001111000011110000111100001111000011110000111100001111000011110000111100001111000011000000000000000000000000000000000000000000000000000000000000001000000000000000000000000000000000000000000000000000000000000000010000000000000000000000000000000000000000000000000000000000000000 3
b100 5
b10 6
01
1#
#21500
0#
#22000
b0 6
b1010 7
1/
1#
#22500
0#
#23000
b1011 7
0/
b11 )
b11 <
b100 =
1,
b0 ;
1#
#23500
0#
#24000
b1100 7
b11000011110000111100001111000011110000111100001111000011110000111100001111000011110000111100001111000011110000111100001111000011110000111100001111000011110000111100001111000011110000111100001111000011110000111100001111000011110000111100001111000011110000110000000000000000000000000000000000000000000000000000000000000011000000000000000000000000000000000000000000000000000000000000001000000000000000000000000000000000000000000000000000000000000000010000000000000000000000000000000000000000000000000000000000000000 3
1#
