SHA3_BURST_MASTER/keccak/keccak.vcd
$comment
TOOL:	simvisdbutil(64)	22.09-s007
$end

$date
    Mar 07, 2024 01:30:19
$end

$timescale
    1ps
$end


$scope module test_keccak $end
$var wire 1 ! buffer_full $end
$var wire 3 " byte_num [2:0] $end
$var wire 1 # clk $end
$var integer 32 $ i $end
$var wire 64 % in [63:0] $end
$var wire 1 & in_ready $end
$var wire 1 ' is_last $end
$var wire 512 ( out [511:0] $end
$var wire 1 ) out_ready $end
$var wire 1 * reset $end

$scope module uut $end

$scope module padder_ $end
$var wire 1 + accept $end
$var wire 3 , byte_num [2:0] $end
$var wire 1 - clk $end
$var wire 1 . done $end
$var wire 1 / f_ack $end
$var wire 9 0 i [8:0] $end
$var wire 64 1 in [63:0] $end
$var wire 1 2 in_ready $end
$var wire 1 3 is_last $end
$var wire 576 4 out [575:0] $end
$var wire 1 5 out_ready $end
$var wire 1 6 reset $end
$var wire 1 7 state $end
$var wire 1 8 update $end
$var wire 64 9 v0 [63:0] $end
$var wire 64 : v1 [63:0] $end
$upscope $end

$upscope $end

$upscope $end

$enddefinitions $end
#0
$dumpvars
x!
b0 "
0#
b0 $
b0 %
0&
0'
bx (
x)
0*
0+
b0 ,
0-
x.
x/
bx 0
b0 1
02
03
bx 4
x5
06
x7
x8
b100000000000000000000000000000000000000000000000000000000 9
b0 :
$end
#10000
1#
1-
#20000
0-
0#
#30000
1#
1-
#40000
0-
0#
#50000
1#
1-
#60000
0-
0#
#70000
1#
1-
#80000
0-
0#
#90000
1#
1-
#100000
0-
1*
16
0#
#110000
1#
b0 (
b0 0
0)
1-
b0 4
05
07
0!
08
0.
0/
#120000
0*
b110000101100001011000010110000101100001011000010110000101100001 1
0#
12
b110000101100001011000010110000101100001011000010110000101100001 %
0-
1+
06
1&
b110000101100001011000010110000101100001011000010110000101100001 :
18
#130000
1-
b110000101100001011000010110000101100001011000010110000101100001 4
b1 0
1#
#140000
0#
0-
#150000
1-
1#
b11 0
b1100001011000010110000101100001011000010110000101100001011000010110000101100001011000010110000101100001011000010110000101100001 4
#160000
0#
0-
#170000
1-
1#
b11000010110000101100001011000010110000101100001011000010110000101100001011000010110000101100001011000010110000101100001011000010110000101100001011000010110000101100001011000010110000101100001 4
b111 0
#180000
0#
0-
#190000
1-
1#
b1111 0
b110000101100001011000010110000101100001011000010110000101100001011000010110000101100001011000010110000101100001011000010110000101100001011000010110000101100001011000010110000101100001011000010110000101100001011000010110000101100001011000010110000101100001 4
#200000
0#
0-
#210000
1-
1#
b1100001011000010110000101100001011000010110000101100001011000010110000101100001011000010110000101100001011000010110000101100001011000010110000101100001011000010110000101100001011000010110000101100001011000010110000101100001011000010110000101100001011000010110000101100001011000010110000101100001011000010110000101100001 4
b11111 0
#220000
0#
0-
#230000
1-
1#
b111111 0
b11000010110000101100001011000010110000101100001011000010110000101100001011000010110000101100001011000010110000101100001011000010110000101100001011000010110000101100001011000010110000101100001011000010110000101100001011000010110000101100001011000010110000101100001011000010110000101100001011000010110000101100001011000010110000101100001011000010110000101100001011000010110000101100001 4
#240000
0#
0-
#250000
1-
1#
b110000101100001011000010110000101100001011000010110000101100001011000010110000101100001011000010110000101100001011000010110000101100001011000010110000101100001011000010110000101100001011000010110000101100001011000010110000101100001011000010110000101100001011000010110000101100001011000010110000101100001011000010110000101100001011000010110000101100001011000010110000101100001011000010110000101100001011000010110000101100001011000010110000101100001 4
b1111111 0
#260000
0#
0-
#270000
1-
1#
b11111111 0
b1100001011000010110000101100001011000010110000101100001011000010110000101100001011000010110000101100001011000010110000101100001011000010110000101100001011000010110000101100001011000010110000101100001011000010110000101100001011000010110000101100001011000010110000101100001011000010110000101100001011000010110000101100001011000010110000101100001011000010110000101100001011000010110000101100001011000010110000101100001011000010110000101100001011000010110000101100001011000010110000101100001011000010110000101100001 4
#280000
b10000000100000001000000010000000100000001000000010000000100000 1
13
0#
b10000000100000001000000010000000100000001000000010000000100000 %
0-
b100000000000000000000000000000000000000000000000010000000 :
1'
#290000
b11000010110000101100001011000010110000101100001011000010110000101100001011000010110000101100001011000010110000101100001011000010110000101100001011000010110000101100001011000010110000101100001011000010110000101100001011000010110000101100001011000010110000101100001011000010110000101100001011000010110000101100001011000010110000101100001011000010110000101100001011000010110000101100001011000010110000101100001011000010110000101100001011000010110000101100001011000010110000101100001011000010110000101100001011000010000000100000000000000000000000000000000000000000000000010000000 4
15
b111111111 0
1/
1#
08
b10000000 :
17
0+
1-
1!
#300000
0#
0'
03
02
0-
0&
#310000
0!
b100011100000000100001001100000111010010100000011011001110100001010010010100111111101111010010010101111001110111000111101110111111111010011111111111001000111110011110110110001001011011110101111000110111011011011000111010100101110000011110111000101101111011100010000101101000101111110011010000000101100001100010010100101011000011111010001000111111011111110010100100010111011011111010101110101011001010100010101111110011011010011010001110100011001011110111001101111101011110011010000110111101110000111111000111011 (
05
b0 0
1#
0/
1-
b0 :
1.
#320000
0#
0-
#330000
1-
b1010001000000010111101010101111001011100001001000101001101011000001100001010011100101101111001100001111001000010101100010001111010000011100110000100100010100110011111100111110000011101111101000010111001110111000010000010110010001000100110101000011010101000110001100110100110111010100010101100111010111101110001010111100111001010111010000011101001010101011101011110001100111010000101111011011011100101110001011101001000010110101111011101001001000011000011101101010000011011100100000000101101011000111001010010010 (
1#
#340000
0#
0-
#350000
1-
1#
b10000000111000101001111101110110001111100111011011011111010010011100001100110010111010101101000011101110001101001010111111000001001101000010101110101010101000001000001100010000000010001011011111100000000100100010111111110111100011101101001101001100000011101000000001010000110001010100001000110101010000001100010111011001000000100010110101110111111100100001110000001001111011000110100001111110010000000001011011011011010101001110000010101011010010011111011100101110001000100001111101001110110010000000011101011 (
#360000
0-
0#
#370000
1#
b1011011101010000111100101011010101010111111111000010011010000111000100101100011001000001100110010011111101110101100001111011011101101110001001111010111100110011111001110001100000101110100111010010000101100111001100011111011000001110010000100111001111110101100100110000010101001010110011011011011001010000111000110010100000101011010010100101100001110000010110110011110010010000010011001111100101010010011001100011011001000001011111100001010111110001011001110010101010011110001111101111010000101000010100110100101 (
1-
#380000
0-
0#
#390000
1#
1-
b11101000010101111100001111001010011011011001110001100010011111111111001001110100011010001110111001101001001001101111011001001100000110110001111011011111110001110101111101111001011110111001011010100011010000001100110110101101110011010101100110101010011000010111011011101111000111001111101110000010110110011100100100101100100001010001000110111111000110010001111001000111011110001000011100100111101010101110100110001010011001100100011101001110111110101110110101110001101011010100100110001101001000101000010100000111 (
#400000
0#
0-
#410000
1-
b11001010011011100111100111101011101101101011100111011101101011100110010101001011100100111001101000011101111110111111111000001001110000011110110000100101110000100100100000010101000100000100110100111100110011100111111011011001101100010110001010000110101000110100100011001100001110000110101011000001101001010001100000101110001010000010000011001010100011110100100111111000100111011010001111111010010011101000101001010111111010111111011010100100110010000101111010000110111111111010010011000110001001001001111001100001 (
1#
#420000
0#
0-
#430000
1-
1#
b10111111111111101010001011010101010111111011111011000010110001111011110110110100111101001010010100000000111010010111101110001110001111101111100100111101010101010100111001111000111001011000100000101010001111111010001001001101110101101011001100101010010000000011001101010001001011001010111111111111010110100101010001000000010011000101100101100001110001001000010100001111111010010000011111001010011011011000011001110101010110101010000011010010101110011001110001000111000000010101101110111011111011001111101011111000 (
#440000
0-
0#
#450000
1#
b10001011000100110001001111100001010110000110010111010100010010001010000100001111101000111111110110000010111100110001000010010010000111000101011010110011101000010100110011001011010110010000010110001100100100101101101111101100101010001010101001110000011111110110101011001100001011111111000011000010110011111001110000111100110011111001101011111011000011011000100110000011001001001111010100000000000101011010010000110001110001100101110001000101101100001100101100101011101000100101100111110000011101110100101101100010 (
1-
#460000
0-
0#
#470000
1#
1-
b10110111000110011010111110101111111011100010011110011010111001001000110010001010111100010111000010100110001000011100001010011001000101110001010010001100110101111010011010100001110100011101001000101010011111111001011111000001111110101100010111101000101011111110110101111000101111001011010010010111000000101101110100111100010101100011101111110101011101001100000111110101010101010100110100000110101011100100011111000011110011101011011100010100100100100011001001000000101010011101010100001001011011100011101111111 (
#480000
0#
0-
#490000
1-
b1100000110000010100010100111101111000101001010001010001001111000001100101110000110100011111110110001110110111001111000111110101011101001011111010001001001111100010101111001100101100010100010100000010001001001001011010110100100101000110100011110000010001110011110110010001011001011101101010110101110000001000001001000110001011100001010100000110010011111000101000001001110011111000111011100110110001010010111111101110111000111110101110100000100001111000100100010001010001100100100000110110000111011011011001101100 (
1#
#500000
0#
0-
#510000
1-
1#
b11011111100111000110110101101010010101001110100110011100001101001000001000001110001000000111010100111000111111100100011011100011111010110010100011010111010111001111001110101100000011001001011010100000011001000111000100111110101001100000011010001100100000101110011011000101100101101011110011011011010010110010011101011111001010001101111101101110000101111011110111100011110101101011000011110100101001111101111110111110000001100001010111101000101110111110010011011111000101111001011000101000111000000001001011100011 (
#520000
0-
0#
#530000
1#
b10101000101011001010110111001100001000101010100010110111001111011110100010000110011011111000011010000111000011011001011101001111101010100101100111011000001101001101111001001100011100000110001111110111011101011000100111011110000111111011100010100100001111110100101100001100000010010110110101000000001001100000100101111111001100110011111001110010100110011101100111101001101001110110000001111100001111100010110000110010010001110011011010011001010010000110010011001101100110111001010101010001111111010001110000011 (
1)
1-
#540000
0-
0#
#550000
1#
1-
#560000
0-
0#
#570000
1#
1-
#580000
0-
0#
#590000
1#
1-
#600000
0-
0#
#610000
1#
1-
#620000
0-
0#
#630000
1#
1-
#640000
0-
0#
#650000
1#
1-
#660000
0-
0#
1*
16
#670000
1#
1-
b0 4
b0 (
0.
0)
b10000000100000001000000010000000100000001000000010000000100000 :
07
#680000
0#
b101010001101000011001010010000001110001011101010110100101100011 %
06
1&
0-
b101010001101000011001010010000001110001011101010110100101100011 1
b101010001101000011001010010000001110001011101010110100101100011 :
0*
18
1+
12
#690000
1-
1#
b101010001101000011001010010000001110001011101010110100101100011 4
b1 0
#700000
b110101100100000011000100111001001101111011101110110111000100000 %
0#
0-
b110101100100000011000100111001001101111011101110110111000100000 :
b110101100100000011000100111001001101111011101110110111000100000 1
#710000
1#
b1010100011010000110010100100000011100010111010101101001011000110110101100100000011000100111001001101111011101110110111000100000 4
b11 0
1-
#720000
0-
b110011001101111011110000010000001101010011101010110110101110000 1
0#
b110011001101111011110000010000001101010011101010110110101110000 %
b110011001101111011110000010000001101010011101010110110101110000 :
#730000
1#
b10101000110100001100101001000000111000101110101011010010110001101101011001000000110001001110010011011110111011101101110001000000110011001101111011110000010000001101010011101010110110101110000 4
1-
b111 0
#740000
b111001100100000011011110111011001100101011100100010000001110100 :
0#
b111001100100000011011110111011001100101011100100010000001110100 1
0-
b111001100100000011011110111011001100101011100100010000001110100 %
#750000
1#
b101010001101000011001010010000001110001011101010110100101100011011010110010000001100010011100100110111101110111011011100010000001100110011011110111100000100000011010100111010101101101011100000111001100100000011011110111011001100101011100100010000001110100 4
b1111 0
1-
#760000
0-
b110100001100101001000000110110001100001011110100111100100100000 %
0#
b110100001100101001000000110110001100001011110100111100100100000 :
b110100001100101001000000110110001100001011110100111100100100000 1
#770000
1#
b1010100011010000110010100100000011100010111010101101001011000110110101100100000011000100111001001101111011101110110111000100000011001100110111101111000001000000110101001110101011011010111000001110011001000000110111101110110011001010111001000100000011101000110100001100101001000000110110001100001011110100111100100100000 4
1-
b11111 0
#780000
b110010001101111011001110010000000100000001000000010000000100000 1
13
0#
1'
b110010001101111011001110010000000100000001000000010000000100000 %
b11 "
0-
b110010001101111011001110000000100000000000000000000000000000000 :
b11 ,
b110010001101111011001110000000100000000000000000000000000000000 9
#790000
b111111 0
b10101000110100001100101001000000111000101110101011010010110001101101011001000000110001001110010011011110111011101101110001000000110011001101111011110000010000001101010011101010110110101110000011100110010000001101111011101100110010101110010001000000111010001101000011001010010000001101100011000010111101001111001001000000110010001101111011001110000000100000000000000000000000000000000 4
17
1#
b0 :
1-
0+
#800000
02
0&
0'
03
0-
0#
#810000
1#
b1111111 0
b101010001101000011001010010000001110001011101010110100101100011011010110010000001100010011100100110111101110111011011100010000001100110011011110111100000100000011010100111010101101101011100000111001100100000011011110111011001100101011100100010000001110100011010000110010100100000011011000110000101111010011110010010000001100100011011110110011100000001000000000000000000000000000000000000000000000000000000000000000000000000000000000000000000000000 4
1-
#820000
0-
0#
#830000
1#
1-
b11111111 0
b1010100011010000110010100100000011100010111010101101001011000110110101100100000011000100111001001101111011101110110111000100000011001100110111101111000001000000110101001110101011011010111000001110011001000000110111101110110011001010111001000100000011101000110100001100101001000000110110001100001011110100111100100100000011001000110111101100111000000010000000000000000000000000000000000000000000000000000000000000000000000000000000000000000000000000000000000000000000000000000000000000000000000000000000000000000 4
b10000000 :
#840000
0-
0#
#850000
1#
1-
1!
15
b10101000110100001100101001000000111000101110101011010010110001101101011001000000110001001110010011011110111011101101110001000000110011001101111011110000010000001101010011101010110110101110000011100110010000001101111011101100110010101110010001000000111010001101000011001010010000001101100011000010111101001111001001000000110010001101111011001110000000100000000000000000000000000000000000000000000000000000000000000000000000000000000000000000000000000000000000000000000000000000000000000000000000000000000000000000000000000000000000000000000000000000000000000000000000010000000 4
b111111111 0
1/
08
#860000
0#
0-
#870000
1-
1#
0!
b1110001111111101010101001011010000101001010010001001011110111101100101110001110010101010001010001000101011010011001001101100010110010100010001001101001111001101001001011111111000001000000110110101010001110110110010111011001110111011001011001000011110010000111101010011011010110010111100010101000001011110000010000010010010011010100100101010110010011101110001001110100101001010110000111011110101100011110010111010000001001110100110110011011100000000111100001101100010100100000001110111010010000111011011010010 (
b0 :
0/
1.
05
b0 0
#880000
0#
0-
#890000
1-
1#
b1001111001101000000011000111110000100111101001001110010001000110000011111000100010010110101101011000011111010101011111111010101101111001011111101111110101100111110111010110101000111101111101101110110001001010110101011101100010000110000100110110000010110110011011000011011000111010100011000001011101011101010011111110101010111111110110101111100110110010100010000001110000000100001001101000111011010011000001111011111100111100111110100010111101001100010111000110010010010010110111001101010101000001110000001111100 (
#900000
0#
0-
#910000
1-
1#
b11010011110100111110110000001110111011110011100101011110100110110111011101111111100111011011111110001011111011110110100010010100100000010000000010111101111110101101010100110101100111001010110100000101110011000100000011011101111010111001000101001010010110100111010101101011010010010000111100000001001101011110111000001111001101001110010111010010111101000011000100010000101000000001101001101011010111001011101101010111100101001100111110001110001001011011101011001010010000110000100110110011000111101100110001011000 (
#920000
0#
0-
#930000
1-
1#
b10101111010010010001110000000101001001010100000011011000100110010101011100011010001011010011100111100011110101000001011110011000000100011110000001101000100111101110000001010011100010001100111010110001000100101000011110001110001101100001111011011111001101101011011000100010110011000100011011110100010110110111110001001101010000100101011000000000000101000110110011001001101100000100011100110111011110111111000101111010110111101000100001010000101110110011000010001000011001110111000101100101110010001101000101010011 (
#940000
0#
0-
#950000
1-
1#
b100101001101111010011101110111001000101100100010000010000000011100111110011011100110011001001101101000011010010010101100011101100000100010001101011000010011010111000001011110101111110110101110110100010000001110110010001011011101100010001000011001110010000011100010001000110101001011100101100001101110111110010000011110111001000010100100101111000101101011000111001010110110110010010111101001010010111011010010001101001101000000100110110101001000011000010101101100101010010010010110011101111101111100010001010111 (
#960000
0#
0-
#970000
1-
1#
b1001000001110111101010111101000111110000000100111100101011111001111100010011011100100110011101110000001100011110000001101000000111000110110100110001011001000011101100100111111110001010110100110010111101111000101111001011111110100001100101011001011100110111101101111011010010010110001010000011011100011011010101001000010111010011010010110011001111001010100100111000000000111101111010101001101101010011000101101110011110101001011100000001010110000000000001001001011100110010111001101101100111100100101010000001001 (
#980000
0#
0-
#990000
1-
1#
b10111111000101111001011001001010110010001010001111010111001100110011101110101110111011101100101011111011100111101000010010010000000111110001011111000101101011111111101110010110111101101110001000110110010100100111110011110101101100101001000100001110010110010011100100100000110011110001111101010101110010101001001010011001110100100011110001001010001000001111111011111000000010011001110110100100000011000101010001111111010100000101111001101000001001000001100010010000111110011110010100110101111101011111000110000011 (
#1000000
0#
0-
#1010000
1-
1#
b110000100010000010011111000011110001100111110001110101010101101011000101110001100110011000111101101111000010111001111101010011100010100101010111001100001110000101110100010000001000111110010110111010010111001001101110001010011101100010011011000101010000010110000101010010110000100011100111101010011001111111101010100111111000101010011110101101101110000100011010111011110011000100001111111111000001101100001100110001101111111001011101000100011111011110000011000100010100001011000111100111100000110010101111010110 (
#1020000
0#
0-
#1030000
1-
1#
b1101111110011110110000101111100111100001110111001111010010001000111110101101100001110000101100010101001001010110000101001010111000100010011100111011111101111000011010001010000000100010101011011101101110100010011101000101111111111001111110110000001011001001111011000010001110011100010010001001100101001101101001111000010101101001101111010111011110010000101110001101011011100011011100011111010111011100111001010100101101000011000111010001000001011010011000110010010011000010001011000110001110100010100100010000010 (
#1040000
0#
0-
#1050000
1-
1#
b11101110100100110110000011001010001010000011001101010110100101001001110000000101110100010100000010101100001010101100011100001010100100101010100011000010101011001101111111000110000001010001010111110001011110111100111101100010001100001110110011111110001001010111011000111000111001001000101101000100000000101110110110011011111111101000111000010000000110011010101101001111001000011111100110001100011010111000110000001000001010011001101101101001011100001001010011001111010010101111100011110000111101010011111110011011 (
#1060000
0#
0-
#1070000
1-
1#
b10011010001000101100100100011010001100110101100111001110001011011001110101110110110100010000000001001010100110011001100001001000000001110110000000101011110011010001001100000101000000111111001110110000101110110111001010011100010101000011001011010110101110000110011010001110110010111100000000110101011110010100110100000101111000011000101101110100100001000111111001010001001001110100001010010110001101011001001000000101101110110010010101101101101110100101110111000110001000000100000101110110111010010000000110000010 (
#1080000
0#
0-
#1090000
1-
1#
b11010001001101011011101110000100110100000100001110011101101110101100010000110010001001000111111011100101011100111010001000111110101001111101001111001001110111101011001010101001011010001110101100110001110101000111110001001111101101000101111100011110111101000100001000101101011011000101001100011011010110111001101111010110111101000100100111101011110011000100010010011110101010010100110100001010100011110000010111110110001000010011000011111101101001100001001011011010010100111100011110010110010110011111011000001001 (
1)
#1100000
0#
0-
16
1*
#1110000
1-
0)
07
1#
b0 4
b110010001101111011001110010000000100000001000000010000000100000 :
b0 (
0.
#1120000
0-
b101010001101000011001010010000001110001011101010110100101100011 %
0*
b101010001101000011001010000000100000000000000000000000000000000 9
b101010001101000011001010010000001110001011101010110100101100011 1
1&
18
12
1+
0#
06
b101010001101000011001010010000001110001011101010110100101100011 :
#1130000
b1 0
1-
1#
b101010001101000011001010010000001110001011101010110100101100011 4
#1140000
b110101100100000011000100111001001101111011101110110111000100000 :
b110101100100000011000100111001001101111011101110110111000100000 %
b110101100100000011000100000000100000000000000000000000000000000 9
b110101100100000011000100111001001101111011101110110111000100000 1
0#
0-
#1150000
1-
b1010100011010000110010100100000011100010111010101101001011000110110101100100000011000100111001001101111011101110110111000100000 4
b11 0
1#
#1160000
0#
0-
b110011001101111011110000000000100000000000000000000000000000000 9
b110011001101111011110000010000001101010011101010110110101110000 %
b110011001101111011110000010000001101010011101010110110101110000 :
b110011001101111011110000010000001101010011101010110110101110000 1
#1170000
1#
b10101000110100001100101001000000111000101110101011010010110001101101011001000000110001001110010011011110111011101101110001000000110011001101111011110000010000001101010011101010110110101110000 4
1-
b111 0
#1180000
b111001100100000011011110111011001100101011100100010000001110100 1
b111001100100000011011110111011001100101011100100010000001110100 %
0#
b111001100100000011011110000000100000000000000000000000000000000 9
0-
b111001100100000011011110111011001100101011100100010000001110100 :
#1190000
1#
b1111 0
b101010001101000011001010010000001110001011101010110100101100011011010110010000001100010011100100110111101110111011011100010000001100110011011110111100000100000011010100111010101101101011100000111001100100000011011110111011001100101011100100010000001110100 4
1-
#1200000
0-
0#
b110100001100101001000000110110001100001011110100111100100100000 :
b110100001100101001000000110110001100001011110100111100100100000 %
b110100001100101001000000110110001100001011110100111100100100000 1
b110100001100101001000000000000100000000000000000000000000000000 9
#1210000
1-
b11111 0
1#
b1010100011010000110010100100000011100010111010101101001011000110110101100100000011000100111001001101111011101110110111000100000011001100110111101111000001000000110101001110101011011010111000001110011001000000110111101110110011001010111001000100000011101000110100001100101001000000110110001100001011110100111100100100000 4
#1220000
b110010001101111011001110010111000000001000000000000000000000000 9
b110010001101111011001110010111000100000001000000010000000100000 %
1'
0-
b110010001101111011001110010111000000001000000000000000000000000 :
0#
b100 ,
b100 "
13
b110010001101111011001110010111000100000001000000010000000100000 1
#1230000
1-
b111111 0
17
b10101000110100001100101001000000111000101110101011010010110001101101011001000000110001001110010011011110111011101101110001000000110011001101111011110000010000001101010011101010110110101110000011100110010000001101111011101100110010101110010001000000111010001101000011001010010000001101100011000010111101001111001001000000110010001101111011001110010111000000001000000000000000000000000 4
b0 :
0+
1#
#1240000
0#
0-
02
0'
0&
03
#1250000
1#
b1111111 0
1-
b101010001101000011001010010000001110001011101010110100101100011011010110010000001100010011100100110111101110111011011100010000001100110011011110111100000100000011010100111010101101101011100000111001100100000011011110111011001100101011100100010000001110100011010000110010100100000011011000110000101111010011110010010000001100100011011110110011100101110000000010000000000000000000000000000000000000000000000000000000000000000000000000000000000000000 4
#1260000
0#
0-
#1270000
1-
b1010100011010000110010100100000011100010111010101101001011000110110101100100000011000100111001001101111011101110110111000100000011001100110111101111000001000000110101001110101011011010111000001110011001000000110111101110110011001010111001000100000011101000110100001100101001000000110110001100001011110100111100100100000011001000110111101100111001011100000000100000000000000000000000000000000000000000000000000000000000000000000000000000000000000000000000000000000000000000000000000000000000000000000000000000000 4
b11111111 0
1#
b10000000 :
#1280000
0-
0#
#1290000
1#
b10101000110100001100101001000000111000101110101011010010110001101101011001000000110001001110010011011110111011101101110001000000110011001101111011110000010000001101010011101010110110101110000011100110010000001101111011101100110010101110010001000000111010001101000011001010010000001101100011000010111101001111001001000000110010001101111011001110010111000000001000000000000000000000000000000000000000000000000000000000000000000000000000000000000000000000000000000000000000000000000000000000000000000000000000000000000000000000000000000000000000000000000000000000000000010000000 4
1!
08
1-
b111111111 0
1/
15
#1300000
0#
0-
#1310000
1-
05
1.
0!
b0 :
1#
0/
b1101001000111001001000011111001110100110101000100000010010110011011110111001000100100101010011110101010101000001100001101001100010101110101101010000011000110110101101101001001001100111101011110101011111111110010110100101011001111010111100001101001001011010011000010011011111110000000000010111000101101011010000011010010010001111010000010000101010000010110111101001000010100001100001000100110011011001100010010001110011011001101100100111010010011111101011001100010100000011011101010011100110111001001100001001010 (
b0 0
#1320000
0-
0#
#1330000
1#
1-
b1000001000011101010100010010100110001010011100010001111000100101110000010010110000011010011010011101111010000010000100010000000011001110000101101010111100011001011110001000111000100010111111001001111110000001101011101110011101000001001110110000010010101100010110110000110010010100011110110010100110101100010110101010101010101011011110100101110111111010001000110001100001011111010001010100111111111110011101100111101010011010111011000011011010001101000011000111110100001110110111100011011011100100000111000000011 (
#1340000
0-
0#
#1350000
1#
1-
b10000111100001100101001011110001101110101001111000000000010010101011101010010001100110110111110111011011000111010011000001100010110011111011100000010101111100100101010111001110001011010001100001011000100001111110001110000100001000110001111110101111000101111100011000111000010000101100101110011011111101110010110110010000101111001110110000101010101111101011111100111001101010100100011101111110000001011001000000100100000000001101001100101001100111000101100100001011111001100001101010010110110111111001010101010101 (
#1360000
0-
0#
#1370000
1#
1-
b10101100011111110011011011011001110011100101100100001011010011100000110000101111011111100100000001100011110001100100000111000110001011001001011110010111110001001001101101100001000101010100011001010101110011110001111011000111011010101100000110000111110110010101110001010110101001110111110000100001111010101001110010000001100100111001011000010011000010000110010010010000010100110000100011001000100111010101100101001100101100110110111100101000111011110101001011000001010110100011110110101011001010000100101101001010 (
#1380000
0-
0#
#1390000
1#
1-
b101101101110100011100010111011011001110011011101100100101100110001110101011000011010011011001010100010011110001100011001100010000010011101000110101011111001111001100011001111101001101101011000010000010101001000010111111001001010000001001001010001010000100111111000100000000010111011010011100001111011100001111100110000100110000000110011010011001100100001011111010001001011000010111111111101010001000010111111000110000011111100001100011010111010000000000110000001000000101100101010100111011100011011011110111101 (
#1400000
0-
0#
#1410000
1#
1-
b11000010010110001100101111100001111111010001101001010110100101000110001101111011001111111001100111010111100110000100010010000110111110001011011001111011110111111001100111010001110111111011110001110111000011111111000001110010011010010111001001100000101000110110001011100110000100010110111010100011000101110101100111110011100101010100110110111101100001010101011000010111111100110101000100000111000111001100011011001001110011001110011001001110010001111000001110100001110101110010011000001000001010001100111001010010 (
#1420000
0-
0#
#1430000
1#
1-
b11101100100011110000100011101011101010001101010001101010110101001000101011001010001111010110101000110011001111010010100001010000001111011100010110010011010110000100100111101101101110101111011010100000001110111011111110100000101110011001010111000101100110111000100111111011110011110110011111110100110100000011000101000100011011011111000110011100110100110110001011000100101110101111111001010000101001010110001100111110111000000111111011100111001110101010111101000111101101000011111111001000011100010101010000110011 (
#1440000
0-
0#
#1450000
1#
1-
b1110100011110100110110000101101010010011000111111100101110000100010011001010110111011010111101001110101010011100000010000011011000001110000010111011000110100110111111001100101101010000010000010010100000100000000110000111111111101111110001001110111010111111100101100010001010101010011000110110111111110100100010010000001111001011011001000100000101011010000011110110000001100011100101101110101001001011110010110011001110110100001100011000010100110110100110111010101101011111000010001101010100011100011010010000110 (
#1460000
0-
0#
#1470000
1#
1-
b110100000100111000000011100001011110111011111111011100110101100011001000010001110001100110011010010100101110011100000111001011100101010010111110110111111110101011000100000111010101101000011100010000101101001000110110110001110100000010011100011000001110101100001010001111011111101101000111001110010110000100111101001010000111111001010001110111101000111101000101011111100101110100011110001001101000100000000010100110101110001001101000101100001011001010110101001011110011111100110101110011100001000111011010101101 (
#1480000
0-
0#
#1490000
1#
1-
b10100111000100011011100100001100101100101001011000101101010110000111000100010010110000001110011011110011011010011011101101110011110011111000010100110101001100100000001001111101111001101111010101111100111001100101001011000110111011100110101000011101000000101110110011001110010011010100101000010011110010110111100110101101110101100001110111111000110001001110100111011110000101101001101111101101000111110001100011010101111011011100101010010111010100001101011100110011010010011010100010111111000011111010100101011111 (
#1500000
0-
0#
#1510000
1#
1-
b10000101111000111001001001101101001100000001000111110000001000110100101110110100110010111000110111001110011110100100000110110001010001010101111000110111111111100101110000011101110000110000001100110110010000110000100001100011100110110100101101010010001011111110101111000110010011101110110011010001000011011100001111011111001110111010000100101011100010001000111001101111001010101111110110010101100001100000110111111010101011100000111110011101100111101100011011110010101110010110100111000001101110000011010100010110 (
#1520000
0-
0#
#1530000
1#
1)
1-
b10101011011100011001001011010010101100010001111101010001110001111101110101110100010011100111101100110100010000011111111010111111001110010111110010100000011110111111100000010010110011001110101011100001001000101100101001001101111011010110001110000111100010001001000001100100111110001101101110010010001100001111000101110011111101101101000110101011011011100010010010110110111001010000111100000110010110110000001110011111011110011001111101010101100100100011011000001010011001010101100011101011010100101101011101100000 (
#1540000
0#
1*
0-
16
#1550000
1#
07
b0 (
0.
b0 4
1-
0)
b110010001101111011001110010111000100000001000000010000000100000 :
#1560000
06
0#
0-
0*
#1570000
1-
1#
#1580000
0#
0-
#1590000
1-
1#
#1600000
0#
0-
#1610000
1-
1#
#1620000
0#
0-
#1630000
1-
1#
#1640000
0#
0-
#1650000
1-
1#
#1660000
0#
0-
#1670000
1-
1#
#1680000
0#
0-
#1690000
1-
1#
#1700000
0#
b1010000110100010101000111010010010100101000000000000000000000000 1
b1010000110100010101000111010010010100101000000010000000000000000 9
13
1'
b1010000110100010101000111010010010100101000000010000000000000000 :
b1010000110100010101000111010010010100101000000000000000000000000 %
12
0-
18
1&
b101 ,
1+
b101 "
#1710000
1#
b0 :
b1 0
17
0+
1-
b1010000110100010101000111010010010100101000000010000000000000000 4
#1720000
b10010001101000101011001111000 %
b10010000000010000000000000000 9
b10010001101000101011001111000 1
0#
0-
#1730000
1-
b10100001101000101010001110100100101001010000000100000000000000000000000000000000000000000000000000000000000000000000000000000000 4
b11 0
1#
#1740000
0#
0-
0'
03
0&
02
#1750000
b101000011010001010100011101001001010010100000001000000000000000000000000000000000000000000000000000000000000000000000000000000000000000000000000000000000000000000000000000000000000000000000000 4
1-
1#
b111 0
#1760000
0-
0#
#1770000
1#
b1111 0
b1010000110100010101000111010010010100101000000010000000000000000000000000000000000000000000000000000000000000000000000000000000000000000000000000000000000000000000000000000000000000000000000000000000000000000000000000000000000000000000000000000000000000000 4
1-
#1780000
0-
0#
#1790000
1#
1-
b11111 0
b10100001101000101010001110100100101001010000000100000000000000000000000000000000000000000000000000000000000000000000000000000000000000000000000000000000000000000000000000000000000000000000000000000000000000000000000000000000000000000000000000000000000000000000000000000000000000000000000000000000000000000000000000000000 4
#1800000
0-
0#
#1810000
1#
1-
b101000011010001010100011101001001010010100000001000000000000000000000000000000000000000000000000000000000000000000000000000000000000000000000000000000000000000000000000000000000000000000000000000000000000000000000000000000000000000000000000000000000000000000000000000000000000000000000000000000000000000000000000000000000000000000000000000000000000000000000000000000000000000000000000 4
b111111 0
#1820000
0-
0#
#1830000
1#
1-
b1111111 0
b1010000110100010101000111010010010100101000000010000000000000000000000000000000000000000000000000000000000000000000000000000000000000000000000000000000000000000000000000000000000000000000000000000000000000000000000000000000000000000000000000000000000000000000000000000000000000000000000000000000000000000000000000000000000000000000000000000000000000000000000000000000000000000000000000000000000000000000000000000000000000000000000000000000000000000 4
#1840000
0-
0#
#1850000
1#
1-
b10100001101000101010001110100100101001010000000100000000000000000000000000000000000000000000000000000000000000000000000000000000000000000000000000000000000000000000000000000000000000000000000000000000000000000000000000000000000000000000000000000000000000000000000000000000000000000000000000000000000000000000000000000000000000000000000000000000000000000000000000000000000000000000000000000000000000000000000000000000000000000000000000000000000000000000000000000000000000000000000000000000000000000000000000000000 4
b10000000 :
b11111111 0
#1860000
0-
0#
